{
  "$schema": "https://docs.renovatebot.com/renovate-schema.json",
  "extends": [
    "config:best-practices",
    ":disableDependencyDashboard",
    "npm:unpublishSafe"
  ],
  "gitLabIgnoreApprovals": true,
  "packageRules": [
      {
        "matchUpdateTypes": ["patch", "pin", "pinDigest", "digest"],
        "automerge": true
      }
  ],
  "customManagers": [
    {
      "customType": "regex",
      "fileMatch": [
        "^scripts/.*\\.sh$"
      ],
      "matchStrings": [
        "# renovate: datasource=(?<datasource>[a-z-.]+?) depName=(?<depName>[^\\s]+?)(?: (lookupName|packageName)=(?<packageName>[^\\s]+?))?(?: versioning=(?<versioning>[^\\s]+?))??(?: registryUrl=(?<registryUrl>[^\\s]+?))?\\n\\s*.+?_VERSION=\"?(?<currentValue>.+?)\"?\\s"
      ],
      "extractVersionTemplate": "^v(?<version>.*)$"
    }
  ]
}
